%module sdurw_proximitystrategies

%{
#include <rwlibs/swig/ScriptTypes.hpp>
#include <rw/core/Ptr.hpp>
#include <rw/models/Joint.hpp>
#include <rw/models/PrismaticSphericalJoint.hpp>
#include <rw/models/PrismaticUniversalJoint.hpp>
#include <rw/models/SphericalJoint.hpp>
#include <rw/models/UniversalJoint.hpp>
#include <rw/models/VirtualJoint.hpp>
#include <rw/models/DependentJoint.hpp>
#include <rw/models/DependentRevoluteJoint.hpp>
#include <rw/models/DependentPrismaticJoint.hpp>
#include <rw/models/RevoluteJoint.hpp>
#include <rw/models/PrismaticJoint.hpp>
#include <rw/kinematics/MovableFrame.hpp>
#include <rw/kinematics/FixedFrame.hpp>

#include <rw/geometry/IndexedTriMesh.hpp>
using namespace rwlibs::swig;
%}

%include <exception.i>

%import <rwlibs/swig/sdurw_core.i>
%import <rwlibs/swig/sdurw_proximity.i>

%pragma(java) jniclassimports=%{
import org.robwork.sdurw_core.*;
import org.robwork.sdurw_proximity.*;
%}
%pragma(java) moduleimports=%{
import org.robwork.sdurw_core.*;
import org.robwork.sdurw_proximity.*;
%}
%typemap(javaimports) SWIGTYPE %{
import org.robwork.sdurw_core.*;
import org.robwork.sdurw_proximity.*;
%}




class ProximityStrategyFactory
{
public:
    static std::vector<std::string> getCollisionStrategyIDs();

	static rw::core::Ptr<rw::proximity::CollisionStrategy> makeDefaultCollisionStrategy();

	static rw::core::Ptr<rw::proximity::CollisionStrategy> makeCollisionStrategy(const std::string& id);

    static std::vector<std::string> getDistanceStrategyIDs();

	static rw::core::Ptr<rw::proximity::DistanceStrategy> makeDefaultDistanceStrategy();

	static rw::core::Ptr<rw::proximity::DistanceStrategy> makeDistanceStrategy(const std::string& id);
};